Explore_Jiyue
…
## 2014: 8 measures; in 2015: 20 measures =>can not see the trend as measures are diff
data_city %>% 
  group_by(year, measure) %>% 
  summarize(n()) %>% 
  View()
data_city %>% 
  filter(year == 2015) %>% 
  group_by(city, measure) %>% 
  summarize()

## # A tibble: 180 x 2
## # Groups:   city [?]
##    city   measure                                                         
##    <chr>  <chr>                                                           
##  1 Albany Arthritis among adults aged >=18 Years                          
##  2 Albany Binge drinking among adults aged >=18 Years                     
##  3 Albany Cancer (excluding skin cancer) among adults aged >=18 Years     
##  4 Albany Cholesterol screening among adults aged >=18 Years              
##  5 Albany Chronic kidney disease among adults aged >=18 Years             
##  6 Albany Chronic obstructive pulmonary disease among adults aged >=18 Ye~
##  7 Albany Coronary heart disease among adults aged >=18 Years             
##  8 Albany Current asthma among adults aged >=18 Years                     
##  9 Albany Current lack of health insurance among adults aged 1864 Years  
## 10 Albany Current smoking among adults aged >=18 Years                    
## # ... with 170 more rows
…
